{
  "swagger" : "2.0",
  "info" : {
    "description" : "No description",
    "version" : "1.0.0",
    "title" : "ClaimTest",
    "contact" : { }
  },
  "tags" : [ {
    "name" : "Default",
    "description" : "Default section"
  }, {
    "name" : "claim",
    "description" : "provides claim information"
  } ],
  "paths" : {
    "/member/{subscriberid}/{patientdob}/{patientfirstname}/claim?" : {
      "get" : {
        "tags" : [ "claim" ],
        "operationId" : "getMemberSubscriberidPatientdobPatientfirstnameClaim",
        "consumes" : [ ],
        "produces" : [ "application/json" ],
        "parameters" : [ {
          "name" : "subscriberid",
          "in" : "path",
          "description" : "policy number on the members identification card",
          "required" : true,
          "type" : "string"
        }, {
          "name" : "patientdob",
          "in" : "path",
          "description" : "Patient's date of birth on the claim. should adhere to the format  mm/dd/yyyy",
          "required" : true,
          "type" : "string"
        }, {
          "name" : "patientfirstname",
          "in" : "path",
          "description" : "The patient's first name on the claim. Character limitation - 35",
          "required" : true,
          "type" : "string"
        }, {
          "name" : "patientLastName",
          "in" : "query",
          "description" : "The patient's last name on the claim. Character limitation - 60",
          "required" : false,
          "type" : "string",
          "x-example" : "Smith"
        }, {
          "name" : "lineOfBusinessIndicator",
          "in" : "query",
          "description" : "Represents the different kind of products/plans the member has:\n'M' - Medical\n 'D' - Dental\n'A' - For All\nFor example John Doe has Dental and Health product value should be \"A\". \"A\" does not include prescription claims.",
          "required" : false,
          "type" : "string",
          "x-example" : "A"
        }, {
          "name" : "claimFirstDateOfService",
          "in" : "query",
          "description" : "The earliest date of service billed on the claim.\t\nshould adhere to the format  mm/dd/yyyy",
          "required" : false,
          "type" : "string",
          "x-example" : "02/12/2016"
        }, {
          "name" : "claimLastDateOfService",
          "in" : "query",
          "description" : "The last date of service billed on the claim.\t\nshould adhere to the format  mm/dd/yyyy\nclaimlastdateofservice should be greater than or equal claimfirstdateofservice",
          "required" : false,
          "type" : "string",
          "x-example" : "02/30/2016"
        }, {
          "name" : "claimId",
          "in" : "query",
          "description" : "Claim number assigned by the claims processing application. \nMax char -50",
          "required" : false,
          "type" : "string",
          "x-example" : "2899999546713"
        }, {
          "name" : "claimStatusCode",
          "in" : "query",
          "description" : "Represents the status of the claim. \nValid  Values are \"Deleted\" , \"Finalized\", \"Pending\"",
          "required" : false,
          "type" : "string",
          "x-example" : "Finalized"
        }, {
          "name" : "sections",
          "in" : "query",
          "description" : "These inlcude indicators will return additional claim information. Valid values are \"Y\" and \"N\"\npidSearch - This indicator will return personal identification data.\nhistory - This indicator  will return all iterations of a processed claim. For example if the indicator is set to N when only requesting the most current version of the claim.\nproviderAddress - This indicator will return the address of the billing provider i.e street address, city, state and zip code.\notherInsuranceInformation - This indicator will return the details on how another carrier processed the claim as primary.\nmessageText - This indicator will return the claim message code and description of the code. Claim message code is an internal code assigned by the claims processing application indicating how or why a claim was denied/pending/finalized. Claim message provides a description of the claim message code.\npatientDetail - This indicator will return additional claim information. For example, patient account number, patient admission date, patient discharg date, patient coinsurance amount, patient copayment amount, patient deductile amount, and patient liability amount. \npaymentDetails - This indicator will return additional payment payee information. \naggregratedLineAmounts - This indicator will return the total sum amounts of the copay, coinsurance and deductible amount for all of the claim lines.\nlineDetails - This indicator will return additional claim line details when value set to 'Y'.\nsubGroups - This indicator will return additional member group information. \nexaminer - This indicator will return the represenative who processed the claim if set to Y.  \ncomplexClaims - This indicator will return the complex claim indicator to be returned in the response for each claim.  \nproductSubProductInformation - This indicator when set to Y will return product information.",
          "required" : false,
          "type" : "string",
          "x-example" : "sections=\"history, providerAddress, otherInsuranceInformation\""
        } ],
        "responses" : {
          "200" : {
            "description" : "success",
            "schema" : {
              "type" : "array",
              "items" : {
                "$ref" : "#/definitions/claims"
              }
            }
          },
          "404" : {
            "description" : "no claim record returned.",
            "schema" : {
              "$ref" : "#/definitions/claims"
            }
          }
        }
      }
    }
  },
  "definitions" : {
    "aggregratedLineAmounts" : {
      "type" : "object",
      "properties" : {
        "coinsuranceAmount" : {
          "type" : "number",
          "format" : "double",
          "description" : "The sum of the coinsurance amount from all claim lines."
        },
        "copayAmount" : {
          "type" : "number",
          "format" : "double",
          "description" : "The sum of the copay amount from all claim lines."
        },
        "deductibleAmount" : {
          "type" : "number",
          "format" : "double",
          "description" : "The sum of the deductible amount from all claim lines."
        }
      },
      "description" : "Returns the total sum amounts of the copay, coinsurance and deductible amount for all of the claim lines."
    },
    "claims" : {
      "type" : "object",
      "properties" : {
        "accidentalInjuryCode" : {
          "type" : "string",
          "description" : "Identifies if the claim is a result of an acccident. Valid values: ’AUTO’, ’OTHER’, ’WORKERS COMP’"
        },
        "activationPlanCode" : {
          "type" : "string",
          "description" : "This value will be combined with the original claim id to make the NASCO claim number unique. It will be \"blank\" for records other than NASCO"
        },
        "adjustmentReasonCode" : {
          "type" : "string",
          "description" : "A code that explains why a claim was adjusted."
        },
        "adjustmentReasonDef" : {
          "type" : "string",
          "description" : "The definition explaining why a claim was adjusted."
        },
        "aggregratedLineAmounts" : {
          "$ref" : "#/definitions/aggregratedLineAmounts"
        },
        "allowedAmount" : {
          "type" : "number",
          "format" : "double",
          "description" : "The contractual amount allowed before member and provider liability."
        },
        "billType" : {
          "type" : "string",
          "description" : "The 3 byte UB92 standard field called Type of Bill for example, ’111’, ’131’."
        },
        "billTypeDef" : {
          "type" : "string",
          "description" : "The text description associated with the UB92 standard field called Type of Bill."
        },
        "blueCardItsTraceNo" : {
          "type" : "string",
          "description" : "The number that uniquely identifies an ITS claim. The ITS claim number or SCCF number."
        },
        "checkDate" : {
          "type" : "string",
          "description" : "The date on the check that is associated with the claim."
        },
        "checkNo" : {
          "type" : "string",
          "description" : "The check number for the claim. This field will be set to ’DRAFT’ for claims that were paid to a hospital via a draft payment. This field will be set to ’PREPAID’ if all lines on the claim were paid under a capitated arrangement."
        },
        "comments" : {
          "type" : "string",
          "description" : "Comments on a claim header record."
        },
        "complex" : {
          "type" : "string",
          "description" : "Identifies if the claim returned is a complex type. Valid values can be 'Y' or 'N'"
        },
        "diagnosisDef" : {
          "type" : "string",
          "description" : "The definition associated with the ICD-9 or ICD-10 diagnosis code."
        },
        "diagnosisPrimaryCode" : {
          "type" : "string",
          "description" : "The primary ICD-9 or ICD-10 diagnosis code on the claim header."
        },
        "dispositionCode" : {
          "type" : "string",
          "description" : "This value will be returned for QBLUE and MPL claims. When it is combined with the claim original ID it makes the claim number unique in QBLUE/MPL."
        },
        "eftTraceNo" : {
          "type" : "string",
          "description" : "Depending on the type of payment, this may be the EFT trace number or check number. For an EFT payment, this returns the EFT Trace No. For a Check payment, this returns the Check No."
        },
        "encounterNo" : {
          "type" : "string",
          "description" : "The number that uniquely identifies an HSII encounter record and will only be populated for records returned from HSII."
        },
        "estimatedPayDate" : {
          "type" : "string",
          "description" : "The date estimated by the Universal Payment System (UPS) for estimated pay or check date."
        },
        "examinerCode" : {
          "type" : "string",
          "description" : "Identifies the represenative who processed the claim."
        },
        "finalIterationClaimInd" : {
          "type" : "string",
          "description" : "Represents the final iteration of a claim."
        },
        "firstServiceDate" : {
          "type" : "string",
          "description" : "The earliest date of service on the claim header record."
        },
        "id" : {
          "type" : "string",
          "description" : "Uniquely identifies the claim and assigned by the claims processing application."
        },
        "imageNumber" : {
          "type" : "string",
          "description" : "The number that will allow a person to link to the imaging system and pull up the image for the claim."
        },
        "lastServiceDate" : {
          "type" : "string",
          "description" : "The latest date of service on the claim header record."
        },
        "lastUpdate" : {
          "type" : "string",
          "description" : "The date and time of the mainframe batch run that last touched the claim."
        },
        "lineDetail" : {
          "type" : "array",
          "items" : {
            "$ref" : "#/definitions/lineDetail"
          }
        },
        "locationCode" : {
          "type" : "string",
          "description" : "The first 3 characters of the value in this column is the Claim Location Code"
        },
        "locationDate" : {
          "type" : "string",
          "description" : "The last 10 characters of the value in this column is the Claim ITS Location Date."
        },
        "medicareAssignmentInd" : {
          "type" : "string",
          "description" : "Identified if the provider has agreed to accept the amount that Medicare is willing to pay as full payment for services. Valid values: ’Y’, ’N’."
        },
        "medicareInd" : {
          "type" : "string",
          "description" : "A yes or no indicator that explains if this claim is a Medicare claim. Valid Values: 'Y' , 'N'"
        },
        "memberVipFlag" : {
          "type" : "string",
          "description" : "A Yes or No indicator that shows if member is a VIP. Valid values: ’Y’, ’N’."
        },
        "messageStatusSystem" : {
          "type" : "string",
          "description" : "This value will identity if the claim is Blue Exchange or Local. Valid values are 'BX' or 'LOCAL'"
        },
        "messageText" : {
          "description" : "",
          "$ref" : "#/definitions/messageText"
        },
        "notCoveredAmount" : {
          "type" : "number",
          "format" : "double",
          "description" : "The amount that is not covered under a member’s benefit."
        },
        "otherCarrierInd" : {
          "type" : "string",
          "description" : "Identifies if there was another carrier involved for the claim. Valid Values : Values: ’Y’, ’N’"
        },
        "otherInsuranceInformation" : {
          "description" : "",
          "$ref" : "#/definitions/otherInsuranceInformation"
        },
        "paidAmount" : {
          "type" : "number",
          "format" : "double",
          "description" : "The total amount paid to a subscriber or provider for the services rendered on the claim."
        },
        "patientControlNumber" : {
          "type" : "string",
          "description" : "Identifies the Patient Control Number."
        },
        "patientDetail" : {
          "$ref" : "#/definitions/patientDetail"
        },
        "patientDob" : {
          "type" : "string",
          "description" : "The date of birth of the patient as submitted on the claim."
        },
        "patientFirstName" : {
          "type" : "string",
          "description" : "The first name of the patient as submitted on the claim."
        },
        "patientGender" : {
          "type" : "string",
          "description" : "The gender of the patient as submitted on the claim."
        },
        "patientLastName" : {
          "type" : "string",
          "description" : "The last name of the patient as submitted on the claim."
        },
        "patientMiddleInitial" : {
          "type" : "string",
          "description" : "The middle initial of the patient as submitted on the claim."
        },
        "payeeName" : {
          "type" : "string",
          "description" : "Identifies if the claim was processed to pay the provider or subscriber."
        },
        "payeeType" : {
          "type" : "string",
          "description" : "Identifies if the payment was issued to the member or the provider.\nValid values are 'P', 'S'"
        },
        "paymentDetails" : {
          "$ref" : "#/definitions/paymentDetails"
        },
        "paymentIndicator" : {
          "type" : "string",
          "description" : "Identifies the type of payment:  \n'A' - Represents 'ACH', indicating it is an EFT Payment; \n'C' - Represents a Check Payment;\n ' ' (Blank) - Represents the Claim was 'PREPAID' for Capitation. \nAllow null value when both Check No and EFT Trace No are not available."
        },
        "personId" : {
          "type" : "string",
          "description" : "The Person Id field will be extracted from Claim table."
        },
        "pharmacyPrescriptionNumber" : {
          "type" : "string",
          "description" : "Identifies the Pharmacy Prescription Number."
        },
        "pid" : {
          "$ref" : "#/definitions/pid"
        },
        "productSubProductInformation" : {
          "$ref" : "#/definitions/productSubProductInformation"
        },
        "providerAddress" : {
          "description" : "",
          "$ref" : "#/definitions/providerAddress"
        },
        "providerFirstName" : {
          "type" : "string",
          "description" : "The fist name of the provider who rendered the service."
        },
        "providerId" : {
          "type" : "string",
          "description" : "The Provider ID submitted on the claim. Depending on the provider, it can be a 6-digit Medicare Number, a 9-digit TIN, a 10-digit Medical Provider ID including the suffix."
        },
        "providerLastName" : {
          "type" : "string",
          "description" : "The last name of the provider who rendered the service."
        },
        "providerMiddleName" : {
          "type" : "string",
          "description" : "The middle name of the provider who rendered the service."
        },
        "providerNpi" : {
          "type" : "string",
          "description" : "The provider national provider identifier (NPI)."
        },
        "providerOrgName" : {
          "type" : "string",
          "description" : "The billing (pay-to) provider group name."
        },
        "receivedDate" : {
          "type" : "string",
          "description" : "The date claim was received or the date the claim was entered into the claim processing application."
        },
        "secondaryComments" : {
          "type" : "string",
          "description" : "Additional status returned from Blue Exchange."
        },
        "secondaryStatusCode" : {
          "type" : "string",
          "description" : "Additional status returned from Blue Exchange"
        },
        "sourceSystem" : {
          "type" : "string",
          "description" : "This value Identifies the claims processing application that housed the claim i.e Nasco, Qblue"
        },
        "statusCode" : {
          "type" : "string",
          "description" : "Status of the claim indicating if it is pending, finalized, or deleted. Valid Values: Deleted’, ’Finalized’, ’Pending’."
        },
        "statusDate" : {
          "type" : "string",
          "description" : "The date that the claim reached its current claim status code. If it is pended - the last date that it was pended. If it is finalized - the date it was finalized (ready to go to payment)."
        },
        "subsBrandingInd" : {
          "type" : "string",
          "description" : "Subscriber's Group Product State Code"
        },
        "subscriber" : {
          "$ref" : "#/definitions/subscriber"
        },
        "subscriberFirstName" : {
          "type" : "string",
          "description" : "The first name of subscriber."
        },
        "subscriberGender" : {
          "type" : "string",
          "description" : "The subscriber’s gender. Valid values: ’M’, ’F’."
        },
        "subscriberId" : {
          "type" : "string",
          "description" : "The SSN of the Subscriber or the Full MPL Subscriber ID."
        },
        "subscriberIdCorrectedIndicator" : {
          "type" : "string",
          "description" : "Valid values 'Y' or 'N'. Default value is N. Value Y if subscriber ID is added with prefix."
        },
        "subscriberLastName" : {
          "type" : "string",
          "description" : "The last name of the subscriber."
        },
        "tertiaryComments" : {
          "type" : "string",
          "description" : "Additional status returned from Blue Exchange."
        },
        "tertiaryStatusCode" : {
          "type" : "string",
          "description" : "Additional status returned from Blue Exchange."
        },
        "totalChargeAmount" : {
          "type" : "number",
          "format" : "double",
          "description" : "The total amount that the provider billed on the claim."
        },
        "voucherIdentifier" : {
          "type" : "string",
          "description" : "Identifies the Voucher Identifier."
        }
      }
    },
    "lineDetail" : {
      "type" : "object",
      "properties" : {
        "allowedAmount" : {
          "type" : "number",
          "format" : "double",
          "description" : "The maximum amount allowed contractually obligated to pay for the service line."
        },
        "chargeAmount" : {
          "type" : "number",
          "format" : "double",
          "description" : "The amount billed for the service line."
        },
        "coinsuranceAmount" : {
          "type" : "number",
          "format" : "double",
          "description" : "The line level coinsurance amount."
        },
        "copayAmount" : {
          "type" : "number",
          "format" : "double",
          "description" : "The line level copay amount."
        },
        "deductibleAmount" : {
          "type" : "number",
          "format" : "double",
          "description" : "The amount of deductible that the member is responsible for on the service line."
        },
        "diagnosticCode" : {
          "type" : "string",
          "description" : "The industry standard ICD-9 or ICD-10 diagnosis code on the line item."
        },
        "diagnosticDefinition" : {
          "type" : "string",
          "description" : "The text description associated with the diagnosis code."
        },
        "lastUpdate" : {
          "type" : "string",
          "description" : "This field holds the date and time of the mainframe batch run that last touched the record."
        },
        "medAllowedAmount" : {
          "type" : "number",
          "format" : "double",
          "description" : "The maximum amount that Medicare is contractually obligated to pay for the service line."
        },
        "medCoinsurance" : {
          "type" : "number",
          "format" : "double",
          "description" : "The amount of Medicare coinsurance for the service line."
        },
        "medDeductible" : {
          "type" : "number",
          "format" : "double",
          "description" : "The amount of Medicare deductible for the service line."
        },
        "medPaidAmount" : {
          "type" : "number",
          "format" : "double",
          "description" : "The amount that Medicare paid on the service line."
        },
        "message" : {
          "type" : "string",
          "description" : "Description of the claim detail message code."
        },
        "messageCode" : {
          "type" : "string",
          "description" : "An internal code that identifies how or why a service line was paid/denied/pended."
        },
        "notCoveredAmount" : {
          "type" : "number",
          "format" : "double",
          "description" : "The amount that is not covered under a member's benefit on the service line."
        },
        "otherCarrierAllowAmount" : {
          "type" : "number",
          "format" : "double",
          "description" : "The dollar amount that another carrier allowed on the service line."
        },
        "otherCarrierPaidAmount" : {
          "type" : "number",
          "format" : "double",
          "description" : "The dollar amount that another carrier paid on the service line."
        },
        "paidAmount" : {
          "type" : "number",
          "format" : "double",
          "description" : "The amount paid for the service line."
        },
        "patientLiabilityAmount" : {
          "type" : "number",
          "format" : "double",
          "description" : "Line level detail of patient liability amount."
        },
        "placeOfService" : {
          "type" : "string",
          "description" : "A code that identifies the location of the services on a claim.  Example - 03 (means doctor’s office)."
        },
        "placeOfServiceDef" : {
          "type" : "string",
          "description" : "The industry standard ICD-9 or ICD-10 diagnosis code on the line item."
        },
        "procedureCode" : {
          "type" : "string",
          "description" : "The CPT4 code or HCPC code billed on the service line."
        },
        "procedureCodeType" : {
          "type" : "string",
          "description" : "The CPT4 code or HCPC code billed on the service line."
        },
        "procedureModifier" : {
          "type" : "string",
          "description" : "The CPT4 code or HCPC code modifier billed on the service line."
        },
        "providerLiabilityAmount" : {
          "type" : "number",
          "format" : "double",
          "description" : "The amount of money that a provider is responsible for on a line item."
        },
        "revenueCode" : {
          "type" : "string",
          "description" : "The 3 byte code billed on the service line of a UB92/HCFA1450 claim."
        },
        "revenueDef" : {
          "type" : "string",
          "description" : "The short description associated with the Revenue code - a national standard code.  If no description is available \"no description available\"."
        },
        "secondaryStatusCategoryDescription" : {
          "type" : "string",
          "description" : "Additional status from BX"
        },
        "secondaryStatusDescription" : {
          "type" : "string",
          "description" : "Additional status description from BX"
        },
        "sequenceNumber" : {
          "type" : "string",
          "description" : "A number that uniquely identifies the service line within one claim."
        },
        "serviceDefinition" : {
          "type" : "string",
          "description" : "The text definition for the type of service provided."
        },
        "serviceFromDate" : {
          "type" : "string",
          "description" : "The earliest date of service on the service line."
        },
        "serviceToDate" : {
          "type" : "string",
          "description" : "The latest date of service on the service line."
        },
        "serviceType" : {
          "type" : "string",
          "description" : "A code that identifies (generically) the service that was rendered on the claim."
        },
        "serviceUnitCode" : {
          "type" : "string",
          "description" : "The number of units billed on a service line."
        },
        "statusCategoryDescription" : {
          "type" : "string",
          "description" : "Status category description"
        },
        "statusCode" : {
          "type" : "string",
          "description" : "Text identifies if the claim line is pending, finalized, or denied. Valid values: ’Finalized’, ’Pending’, ’Rejected’."
        },
        "statusDescription" : {
          "type" : "string",
          "description" : "Status description"
        },
        "tertiaryStatusCategoryDescription" : {
          "type" : "string",
          "description" : "Additional status from BX"
        },
        "tertiaryStatusDescription" : {
          "type" : "string",
          "description" : "Additional status description from BX"
        },
        "toothNumberQuadrant" : {
          "type" : "string",
          "description" : "Identifies which tooth or which multiple teeth got taken care of on a claim line."
        }
      },
      "description" : "Returns additional claim line details."
    },
    "messageText" : {
      "type" : "object",
      "properties" : {
        "message" : {
          "type" : "string",
          "description" : "description of the claim message code."
        },
        "messageCode" : {
          "type" : "string",
          "description" : "represents an internal code assigned by the claims processing application indicating how or why a claim was denied/pending/finalized."
        }
      },
      "description" : "returns the claim message code and description of the code."
    },
    "otherInsuranceInformation" : {
      "type" : "object",
      "properties" : {
        "medicareCoInsAmount" : {
          "type" : "string",
          "description" : "The amount of Medicare coinsurance"
        },
        "medicareDeductibleAmount" : {
          "type" : "string",
          "description" : "The amount of Medicare deductible"
        },
        "medicarePaidAmount" : {
          "type" : "string",
          "description" : "The amount that Medicare paid on the claim"
        },
        "otherCarrierAllowedAmount" : {
          "type" : "string",
          "description" : "Specifies the dollar amount that another insurance carrier covered for a claim."
        },
        "otherCarrierPaidAmount" : {
          "type" : "string",
          "description" : "The dollar amount that another carrier paid on the claim."
        },
        "otherPayerPatientPaidAmount" : {
          "type" : "string",
          "description" : "Specifies the dollar amount that the patient had to pay to another carrier i.e co-payment."
        }
      },
      "description" : "returns details on how another carrier processed the claim as primary."
    },
    "patientDetail" : {
      "type" : "object",
      "properties" : {
        "accountNumber" : {
          "type" : "string",
          "description" : "A number that uniquely identifies a patient at a doctor’s office."
        },
        "admissionDate" : {
          "type" : "string",
          "description" : "The date that a patient was admitted to the hospital."
        },
        "coinsuranceAmount" : {
          "type" : "number",
          "format" : "double",
          "description" : "The amount of coinsurance a patient is responsible for on a claim."
        },
        "copayAmount" : {
          "type" : "number",
          "format" : "double",
          "description" : "The amount of copay a patient is responsible for on a claim."
        },
        "deductibleAmount" : {
          "type" : "number",
          "format" : "double",
          "description" : "The amount of deductible a patient is responsible for on a claim."
        },
        "dischargeDate" : {
          "type" : "string",
          "description" : "The date that a patient was released from the hospital."
        },
        "liabilityAmount" : {
          "type" : "number",
          "format" : "double",
          "description" : "The total amount that the patient is responsible for on a claim."
        }
      },
      "description" : "Returns additional claim information."
    },
    "paymentDetails" : {
      "type" : "object",
      "properties" : {
        "checkDate" : {
          "type" : "string",
          "description" : "The date on the check."
        },
        "checkNo" : {
          "type" : "string",
          "description" : "The unique number associated with the check as assigned by the claims processing application that the check was written from. For an EFT payment, this field is populated with 'ACH'."
        },
        "checkPayeeCity" : {
          "type" : "string",
          "description" : "The city as it appears as it appears on the check."
        },
        "checkPayeeState" : {
          "type" : "string",
          "description" : "The state as it appears on the check."
        },
        "checkPayeeStreet" : {
          "type" : "string",
          "description" : "The street address as it appears on the check."
        },
        "checkPayeeZip" : {
          "type" : "string",
          "description" : "The zip code as it appears on the check."
        },
        "checkStatus" : {
          "type" : "string",
          "description" : "The status of the check. Valid values: ’Applied to A/R’, ’Cashed’, ’Reissued’, ’Stop Dated’, ’Void’."
        },
        "eftTraceNo" : {
          "type" : "string",
          "description" : "The electronic funds transfer number associated with the payment of the claim."
        },
        "lastUpdate" : {
          "type" : "string",
          "description" : "The last update payment processing date."
        },
        "offsetAmount" : {
          "type" : "number",
          "format" : "double",
          "description" : "The offset paid amount."
        },
        "offsetInd" : {
          "type" : "string",
          "description" : "The offset amount paid indicator."
        },
        "overPaymentAmount" : {
          "type" : "number",
          "format" : "double",
          "description" : "The over paid amount."
        },
        "payeeFirstName" : {
          "type" : "string",
          "description" : "The first name of the payee."
        },
        "payeeInitial" : {
          "type" : "string",
          "description" : "The middle name of the payee."
        },
        "payeeLastName" : {
          "type" : "string",
          "description" : "The last name of the payee."
        },
        "payeeRole" : {
          "type" : "string",
          "description" : "Identifies if the payment was issued to the member or the provider. Valid Values: 'Member' , 'Provider'"
        },
        "paymentAmount" : {
          "type" : "number",
          "format" : "double",
          "description" : "The paid amount."
        },
        "paymentIndicator" : {
          "type" : "string",
          "description" : "Identifies tthe type of payment:  \n'A' - Represents 'ACH', indicating it is an EFT Payment; \n'C' - Represents it is a Check Payment;\n ' ' (Blank) - Represents the Claim was 'PREPAID' for Capitation. \nAllow null value when both Check No and EFT Trace No are not available."
        },
        "processDate" : {
          "type" : "string",
          "description" : "The processing date of the payment."
        },
        "providerId" : {
          "type" : "string",
          "description" : "If the payment was issued to the provider, the tax ID number of the payee will be returned."
        },
        "providerIdSuffix" : {
          "type" : "string",
          "description" : "The 10th-12th chracters of the provider's tax id."
        },
        "providerName" : {
          "type" : "string",
          "description" : "The provider payee name."
        },
        "sourceSystem" : {
          "type" : "string",
          "description" : "The processing system that issued the payment i.e Nasco, UPS, etc."
        },
        "subscriberId" : {
          "type" : "string",
          "description" : "If the payment was issued to the member, the social security number of the payee will be returned."
        }
      },
      "description" : "Returns additional payment payee information."
    },
    "pid" : {
      "type" : "object",
      "properties" : {
        "subscriberCcid" : {
          "type" : "string",
          "description" : "Policy number on the members identification card. Customer card identification i.e 3HZN12345678"
        },
        "subscriberHorizonId" : {
          "type" : "string",
          "description" : "Policy number on the member's identification card prior to the existence of CCID."
        },
        "subscriberInterimId" : {
          "type" : "string",
          "description" : "Policy number assigned to policy holders in some specific States by the insurance company in 2002."
        },
        "subscriberSsn" : {
          "type" : "string",
          "description" : "Policy holder's social security number."
        }
      },
      "description" : "personal identification data"
    },
    "productSubProductInformation" : {
      "type" : "object",
      "properties" : {
        "definition" : {
          "type" : "string",
          "description" : "The text associated with the product ID. The product name is fairly generic for example, HMO."
        },
        "effectiveDate" : {
          "type" : "string",
          "description" : "The date that a product within a group is available to go into effect/"
        },
        "endDate" : {
          "type" : "string",
          "description" : "The date that a product within a group is no longer available."
        },
        "lineId" : {
          "type" : "string",
          "description" : "An identifier of a product line. It is used throughout the entire Membership System to identify the product line to which the product bought by a customer belongs."
        },
        "originalId" : {
          "type" : "string",
          "description" : "The original product id for a product."
        }
      }
    },
    "providerAddress" : {
      "type" : "object",
      "properties" : {
        "providerCity" : {
          "type" : "string",
          "description" : "The city/town of the provider who rendered the service."
        },
        "providerState" : {
          "type" : "string",
          "description" : "The state of the provider who rendered the service."
        },
        "providerStreet" : {
          "type" : "string",
          "description" : "The address of the provider who rendered the service."
        },
        "providerZipCode" : {
          "type" : "string",
          "description" : "The zip code of the provider who rendered the service."
        }
      },
      "description" : "returns the address of the billing provider"
    },
    "subscriber" : {
      "type" : "object",
      "properties" : {
        "controlPlanCode" : {
          "type" : "string",
          "description" : "applies to Nasco claims"
        },
        "groupName" : {
          "type" : "string"
        },
        "groupNumber" : {
          "type" : "string"
        },
        "groupType" : {
          "type" : "string"
        },
        "subGrpPkgOfBenefitsInd" : {
          "type" : "string"
        },
        "subPkgOfBenefitsCode" : {
          "type" : "string"
        },
        "subProductCode" : {
          "type" : "string"
        }
      },
      "description" : "returns addtional policy holder group's information."
    }
  }
}